appnope==0.1.0
colorama==0.3.9
decorator==4.2.1
Django==2.0.2
django-cors-headers==2.2.0
djangorestframework==3.7.7
flake8==3.5.0
ipython==6.2.1
ipython-genutils==0.2.0
jedi==0.11.1
mccabe==0.6.1
mysqlclient==1.3.12
parso==0.1.1
pexpect==4.4.0
pickleshare==0.7.4
prompt-toolkit==1.0.15
ptyprocess==0.5.2
pycodestyle==2.3.1
pyflakes==1.6.0
Pygments==2.2.0
pytz==2018.3
simplegeneric==0.8.1
six==1.11.0
traitlets==4.3.2
wcwidth==0.1.7
